{
  "ex_villavicencio": {
    "title": "Villavicencio",
    "html": "<p>La reserva de Villavicencio promete un escenario natural e histórico a la vez. Es reconocida por ser la ruta que transitó parte del Ejército de Los Andes en 1817. Se pueden apreciar los colores de la flora mendocina preservada y disfrutable en todas las estaciones. El hotel de Villavicencio es parada obligada, erigiéndose en el medio de árboles y montañas: una postal para recordar.</p><p>Puntos de atraccción:</p>
              <ul>
                <li> Cementera Minetti</li>
                <li> Monumento en Canota </li>
                <li> Puesto de Vaquerias (Ingreso a la reserva)</li>
                <li> Hotel de Villavicencio (Jardines, Capilla)</li>
                <li> Mirador de los Caracoles.</li>
              </ul>
              <p>FICHA TÉCNICA</p>
              <p>SALIDAS REGULARES: Mie y Sab - 08:00 hs.<br/>
              DURACIÓN: 4 horas<br/>
              HORARIO REGRESO: 12:00/13:00 horas<br/>
              LUGAR DE SALIDA: Las Heras 554, ciudad<br/>
              SERVICIOS INCLUIDOS:<br/>
              Guías en Español<br/>
              MÍNIMO PASAJEROS: No requerido.<br/></p>"
  },
  "ex_am_villavicencio": {
    "title": "Alta montaña por Villavicencio",
    "html": ""
  },
  "ex_termas": {
    "title": "Termas de Cacheuta",
    "html": "<p>No solo vas a relajarte, vas a vivir una experiencia saludable enmarcado de montañas. Los vapores termales de Cacheuta actúan desintoxicando tu piel y colaboran con tu sistema respiratorio. Viví la experiencia completa con un almuerzo regional y la degustación de vinos exclusivos.</p>
            <p>Incluye:</p>
            <ul>
                <li>Traslado y acceso</li>
                <li>
                  <p>Spa Cacheuta  $1290</p>
                  <ul>
                    <li>Almuerzo regional</li>
                    <li>Acceso a distintos espacios de Cacheuta</li>
                    <li>Bodegas con degustación</li>
                  </ul>
                </li>
            </ul>
            <p>Spa completo  $1130</p>
            <p>FICHA TÉCNICA</p>
            <p>SALIDAS REGULARES: Todos los días - 08:30 hs.
            DURACIÓN: 9 horas <br/>
            LUGAR DE SALIDA: Las Heras 554, ciudad <br/>
            SERVICIOS INCLUIDOS: Traslados y entrada al parque termal.<br/>
            MÍNIMO PASAJEROS: Consultar.<br/>
            </p>"
  },
  "ex_bodegas_vinedo": {
    "title": "Bodegas y viñedos",
    "html": ""
  },
  "ex_alta": {
    "title": "Alta Montaña",
    "html": "<p>Un camino que refresca la vista en colores y picos de montaña. Conocé las rutas mendocinas aventurándote entre ríos, un espejo de agua de más de 130 hectáreas, valles que alivian la altura y sitios históricos. El blanco de la nieve da contra los verdes y la tierra del camino, hasta el límite con Chile. Conocé Mendoza más allá de la ciudad, animate a llegar más lejos.</p>
              <p>Puntos de atracción:</p>
              <ul>
                <li>Dique Potrerillos</li>
                <li>Valle de Uspallata</li>
                <li>Puente de Picheuta</li>
                <li>Villas Polvareda y Punta de Vacas</li>
                <li>Los Penitentes</li>
                <li>Puente del Inca</li>
                <li>Cementerio de los andinistas</li>
                <li>Parque provincial Aconcagua</li>
                <li>Complejo aduanero Horcones</li>
                <li>Las cuevas: límite con Chile</li>
                <li>Cristo redentor  (enero a marzo únicamente)</li>
              </ul>
              <p>FICHA TÉCNICA</p>
              <p>SALIDAS REGULARES: Todos los días: 07:30 hs.<br/>
              DURACIÓN: 11 horas<br/>
              HORARIO REGRESO: 18:30 hs.<br/>
              ÉPOCA: Invierno y Verano<br/>
              LUGAR DE SALIDA: Las Heras 554, ciudad.<br/>
              SERVICIOS INCLUIDOS: Transporte, guía.<br/>
              Guías en Español <br/>
              MÍNIMO PASAJEROS: Consultar.<br/></p>"
  },
  "ex_ciudad": {
    "title": "Ciudad y alrededores",
    "html": "<p>City tour con dos bodegas  $600</p>
      <ul>
        <li>Bodega /Bodega</li>
        <li>Parque /Monumentos</li>
        <li>Teatro griego /Shopping</li>
      </ul>"
  },
  "ex_canon": {
    "title": "Cañon del atuel",
    "html": "<p>El departamento de San Rafael, en el sur de la provincia, aloja una de las represas más impresionantes de Cuyo. El dique Valle Grande está rodeado por el Río Atuel y el Cañón del Atuel, permitiendo actividades de aventura para los que se animen a más. Este paisaje en el centro de Mendoza te asegura una estadía inolvidable.</p>
        <p>Puntos de atracción:</p>
        <ul>
          <li>Ciudad de San Rafael</li>
          <li>Represa Valle Grande</li>
          <li>Lago del Dique Valle Grande</li>
          <li>Cañón del Atuel</li>
          <li>Complejo los Nihuiles</li>
        </ul>
        <p>FICHA TÉCNICA</p>
        <p>SALIDAS REGULARES: Mar, Jue y Dom -  07:00 hs.<br/>
        DURACIÓN: 12 horas (650 kilómetros).<br/>
        SERVICIOS INCLUIDOS: Transporte, guía.<br/>
        Guías en Español<br/>
        MÍNIMO PASAJEROS: No requerido.<br/></p>"
  },
  "ex_cordon": {
    "title": "Cordon del plata",
    "html": "<p>El camino de esta excursión tiene como centro de atención el majestuoso Cordón del Plata. Se puede observar también el Volcán Tupungato, de 6280 msnm. Este recorrido te permite conocer el paisaje típico de la zona del Valle de Uco: frutales, papas, hortalizas, arroyos y algunos cóndores que sobrevuelan el cielo mendocino. Como cierre: la visita a una bodega con degustación incluida, para luego regresar a la ciudad de Mendoza</p>
      <ul>
        <li>Excursión</li>
        <li>Almuerzo sin bebida</li>
        <li>Una bodega</li>
      </ul>
      <p>FICHA TÉCNICA</p>
      <p>SALIDAS REGULARES: Lun y Jue: 08:30 hs.<br/>
      DURACIÓN: 9 horas (280 kilómetros).<br/>
      LUGAR DE SALIDA: Las Heras 554, ciudad <br/>
      SERVICIOS INCLUIDOS: Transporte, guía.<br/>
      Guías en Español <br/>
      MÍNIMO PASAJEROS: Consultar.<br/></p>"
  },
  "av_rafting": {
    "title": "Rafting",
    "html": "<p>Mendoza es una excelente zona para practicar este deporte en cualquiera de los cinco ríos de la provincia: Mendoza, Tunuyán, Atuel, Díamante y Grande. El rafting consiste en descender ríos con caudales moderados en balsas neumáticas, con tres a cinco pasajeros y un encargado de dirigir la balsa. Se puede practicar sin experiencia previa, ya que en el nivel y los circuitos para principiantes no tienen gran dificultad. Al contrario, ofrecen un trayecto lleno de diversión y emoción para aquellos que sólo tienen que saber nadar y a veces disfrutar de los chapuzones espectaculares e inesperados.</p>
    <ul><li>Gutierrez $840</li></ul>
    <p>FICHA TÉCNICA</p>
    <p>SALIDAS REGULARES: Diario : 9:30 / 10:00 hs.<br/>
    DURACIÓN: 1 hora (12 kilómetros).<br/>
    SERVICIOS INCLUIDOS: Traslados, chaqueta y pantalón impermeable, casco, remo, chaleco salvavidas, guía profesional bilingüe, mini curso, charla de seguridad, kayak de apoyo y seguro de accidentes personales.<br/>
    EQUIPO PERSONAL: Traje de baño, muda de ropa extra, toallón y mochila pequeña.<br/>
    MÍNIMO PASAJEROS: 1 Pax.<br/>
    Rafting Intermedio: Moderado para aquellas personas que quieran disfrutar y experimentar una nueva adrenalina.<br/>
    <ul><li>Familiar $650</li></ul></p>
    <p>FICHA TÉCNICA</p>
    <p>SALIDAS REGULARES: Diario : 9:30 / 10:00 hs.<br/>
    DURACIÓN: 30-40 min (5 kilómetros).<br/>
    LUGAR DE SALIDA: Las Heras 554, ciudad<br/>
    SERVICIOS INCLUIDOS: Traslados, chaqueta y pantalón impermeable, casco, remo, chaleco salvavidas, guía profesional bilingüe, mini curso, charla de seguridad, kayak de apoyo y seguro de accidentes personales.<br/>
    EQUIPO PERSONAL: Traje de baño, muda de ropa extra, toallón y mochila pequeña.<br/>
    MÍNIMO PASAJEROS: 1 Pax.<br/>
    Rafting Familiar: Para principiantes que quieran disfrutar y experimentar una nueva aventura.<br/></p>"
  },
  "av_cabalgatas": {
    "title": "Cabalgatas",
    "html": "<p>Los paisajes de Mendoza son reconocidos en todos lados por sus viñas, montañas y los caminos sinuosos de la Cordillera de Los Andes. Elegí las cabalgatas para recorrer el lugar desde sus raíces. Dejá que los caballos locales te guíen en una ruta para recordar toda tu vida.</p>
    <p>Incluye:</p>

    <ul></li>Medio día (Potrerillos)  $1430 s/c</li></ul>
    <p>FICHA TÉCNICA</p>
    <p>SALIDAS REGULARES: Diario: 08:30 / 09:30 hs.<br/>
    DURACIÓN: 2 Hrs.<br/>
    DIFICULTAD: Moderado<br/>
    EDAD MÍNIMA: 8 años, NIÑOS MENORES DE 8 AÑOS COMPARTEN CABALLOS CON ADULTO.<br/>
    SERVICIOS INCLUIDOS: Equipamiento completo, guía profesional, duchas y baños, seguro, primeros auxilios y traslado<br/>
    LUGAR A RECORRER: El Salto (Villa Precordillerana)<br/>
    EXPERIENCIA: No requiere<br/>
    APTITUD FÍSICA: Normal.<br/>
    MÍNIMO PASAJEROS: 1 Pax.<br/></p>

    <ul><li>Día completo (Potrerillos)  $1830 c/c</li></ul>
    <p>FICHA TÉCNICA</p>
    <p>SALIDAS REGULARES: Diario: 08:30 / 09:30 hs.<br/>
    DURACIÓN: 2 + 1,5 Hrs.<br/>
    DIFICULTAD: Moderado<br/>
    EDAD MÍNIMA: 8 años, NIÑOS MENORES DE 8 AÑOS COMPARTEN CABALLOS CON ADULTO.<br/>
    SERVICIOS INCLUIDOS: Transporte, guía impresa de información, equipo necesario para la actividad, guía en español y seguro personal de accidentes.<br/>
    EXPERIENCIA: No requiere<br/>
    APTITUD FÍSICA: Normal.<br/>
    MÍNIMO PASAJEROS: 1 Pax.<br/></p>

    <ul><li>Cabalgata dos días (Tupungato) $7900, $3775 menor</li></ul>

    <ul><li>Cabalgata con hacienda (Tupungato) $2900 c/c</li></ul>
    <p>FICHA TÉCNICA</p>
    <p>SALIDAS REGULARES: Lun a Vie: 08:00 hs.<br/>
    DURACIÓN: 10 Hrs.<br/>
    EDAD MÍNIMA: 16 años.<br/>
    SERVICIOS INCLUIDOS: Traslado, guía impresa de información, equipo necesario para la actividad, desayuno campestre, Almuerzo Asado a la llama con vinos del lugar, descanso en piscina y media tarde campestre .<br/>
    LUGAR A RECORRER: San Jose - Tupungato<br/>
    EXPERIENCIA: No requiere<br/>
    APTITUD FÍSICA: Normal.<br/>
    MÍNIMO PASAJEROS: 2 Pax.<br/></p>"
  },
  "av_kayak": {
    "title": "Kayak",
    "html" : "<p>La mezcla perfecta entre momentos de aventura y tranquilidad en las aguas del Río Mendoza la vas a poder vivir arriba de un kayak. Si te gusta romper con los esquemas de las visitas turísticas, esta excursión está hecha para vos.</p>
      <p>FICHA TÉCNICA </p>
      <p>SALIDAS REGULARES: Todos los días<br/>
      DURACIÓN: 1,5 Hrs. <br/>
      EDAD MÍNIMA: 16 años.<br/>
      SERVICIOS INCLUIDOS: Kayak personal, remo, equipo de río (enterito y zapatillas de neoprene y chaleco salvavidas), guía profesional bilingüe, charla de seguridad, kayak de apoyo y seguro de accidentes personales.<br/>
      EXPERIENCIA: No requiere<br/>
      MÍNIMO PASAJEROS: 1 Pax.<br/></p>"
  },
  "av_trekking": {
    "title": "Trekking",
    "html" : "<p>Este deporte de aventura nos da la posibilidad de adentrarnos en la majestuosidad de Mendoza, a través de un recorrido entre los cerros y caminos de tierra en compañía de un guía experimentado. El trekking en la zona de Potrerillos nos lleva a reservas paleontológicas muy importantes en la provincia, dándonos la posibilidad de observar fósiles y elementos históricos naturales. La caminata requiere de un espíritu aventurero, con ganas de disfrutar de los paisajes y del ejercicio físico.</p>
      <ul>
      <li>Trek mirador  $50 s/c</li>
      <li>Trek Calavera  $1200</li>
      </ul>
      <p>FICHA TÉCNICA</p>
      <p>SALIDAS REGULARES: Todos los días<br/>
      DURACIÓN: 1 HS <br/>
      EDAD MÍNIMA: 16 años.<br/>
      SERVICIOS INCLUIDOS: traslados, guía profesional. Guía impresa de información, equipo necesario para la actividad y seguro personal de accidentes.<br/>
      EXPERIENCIA: No requiere<br/>
      APTITUD FÍSICA: Normal<br/>
      EQUIPO RECOMENDADO: Pantalón largo, abrigo, zapatos trekking, bloqueador solar, anteojos para sol, sombrero y mochila pequeña.<br/>
      MÍNIMO PASAJEROS: 1 Pax.<br/></p>"
  },
  "en_ruta": {
    "title": "Ruta Gastronómica",
    "html": "<p><strong>Bodega Zuccardi / Pan y oliva $1400</strong></p>
      <p>La familia Zuccardi abre Pan y Oliva como segundo emprendimiento gastronómico en la provincia de Mendoza. De platos sencillos, vas a poder probar tapeos, pastas, ensaladas y productos de elaboración fresca. El aceite de oliva es el ingrediente principal en un lugar que resume su esencia en tres conceptos: Restaurant- Almacén- Sitio educativo</p>
      <p>FICHA TÉCNICA</p>
      <p>SALIDAS REGULARES: Lunes a Domingo. HORARIO: 10 a 11 Hrs.<br/>
      DURACIÓN: 4/5 horas.<br/>
      LUGAR DE SALIDA: Las Heras 554<br/>
      SERVICIOS INCLUIDOS: Transporte sin guía, visita guiada con degustación y almuerzo, con vinos incluidos.<br/>
      MÍNIMO PASAJEROS: <br/></p>

      <p><strong>Bodega Zuccardi /Casa del visitante $1700</strong></p>
      <p>Casa del visitante abre sus puertas por primera vez en el año 2001. De origen vanguardista, introdujo el turismo enológico en Argentina. La originalidad de sus propuestas le han permitido obtener el premio como “Experiencia Relevante en Turismo Vitivinícola” a nivel mundial, entregado por la Red Global de la Grandes Capitales del Vino en el año 2007.</p>
      <p>FICHA TÉCNICA</p>
      <p>SALIDAS REGULARES: Lunes a Domingo.<br/>
      HORARIO: 10 a 11 Hrs.<br/>
      DURACIÓN: 4/5 horas (100 kilómetros).<br/>
      LUGAR DE SALIDA: Las Heras 554, ciudad<br/>
      SERVICIOS INCLUIDOS: Transporte sin guía, visita guiada con degustación y almuerzo, con vinos incluidos.<br/>
      MÍNIMO PASAJEROS: Ver.<br/></p>

      <p><strong>Bodega Lopez $1070</strong></p>
      <p>Rincón de López es el restaurant de la bodega reconocida por su estilo clásico. Ofrece diferentes opciones gastronómicas acompañadas de grandes aberturas y terrazas hacia la cordillera. El cierre perfecto de este día lo tienen a cargo los vinos y champagneS producidos en el lugar.</p>
      <p>FICHA TÉCNICA</p>
      <p>SALIDAS REGULARES: Lunes a Viernes.<br/>
      HORARIO: 10 a 11 Hrs.<br/>
      DURACIÓN: 4/5 horas.<br/>
      LUGAR DE SALIDA: Las Heras 554, ciudad<br/>
      SERVICIOS INCLUIDOS: Transporte sin guía, visita guiada con degustación y almuerzo, con vinos incluidos.<br/>
      MÍNIMO PASAJEROS: Ver.<br/></p>

      <p><strong>Nieto Senetiner $1493</strong></p>
      <p>Bodegas Nieto Senetiner fue creada hacia el año 1888 por inmigrantes italianos, quienes plantarán sus primeros viñedos en Vistalba, Luján de Cuyo, provincia de Mendoza. En las décadas del siglo pasado, la bodega comenzó a desarrollarse por distintas familias, quienes han sabido transmitir los conocimientos sobre la elaboración de los grandes vinos. </p>
      <p>FICHA TÉCNICA</p>
      <p>SALIDAS REGULARES: Lunes a Sábados.<br/>
      HORARIO: 10 a 11 hs.<br/>
      DURACIÓN: 4/5 horas.<br/>
      LUGAR DE SALIDA: Las Heras 554, ciudad<br/>
      SERVICIOS INCLUIDOS: Transporte sin guía, visita guiada con degustación y almuerzo, con vinos incluidos.<br/>
      MÍNIMO PASAJEROS: Ver.<br/></p>

      <p><strong>Lagarde $2065</strong></p>
      <p>Bodega Lagarde conserva su bodega original construida en 1897. Presenta un balance armónico entre el pasado y la innovación. Cada uno de sus vinos son pensados desde la cultura y la identidad, invirtiendo en tecnología de última generación.</p>
      <p>FICHA TÉCNICA</p>
      <p>SALIDAS REGULARES: Lunes a Sábado.<br/>
      HORARIO: 10 a 11 hs.<br/>
      DURACIÓN: 4/5 horas (40 kilómetros).<br/>
      LUGAR DE SALIDA: Las Heras 554, ciudad<br/>
      SERVICIOS INCLUIDOS: Transporte sin guía, visita guiada con degustación y almuerzo, con vinos incluidos.<br/>
      MINIMO PASAJEROS: Ver.<br/></p>

      <p><strong>Baquedano $2130</strong></p>
      <p>Ubicada al pie de la montaña Bodega Belasco de Baquedano nos invita a recorrer sus instalaciones y degustar sus vinos. Baquedano tiene la particularidad de tener la Sala de Los Aromas, una de las 3 únicas en el Mundo: en esta sala nos encontramos con un abanico de más de cuarenta y cinco aromas procedentes del vino. Enmarca la experiencia la vista privilegiada del Cordón del Plata.</p>
      <p>FICHA TÉCNICA</p>
      <p>SALIDAS REGULARES: Lunes a Domingos.<br/>
      HORARIO: 11:00 aproximadamente.<br/>
      DURACIÓN: 5 horas (70 kilómetros).<br/>
      LUGAR DE SALIDA: Las Heras 554, ciudad<br/>
      SERVICIOS INCLUIDOS: Transporte sin guía, visita guiada con degustación y almuerzo, con vinos incluidos.<br/>
      MÍNIMO PASAJEROS: Ver.<br/></p>

      <p><strong>Salentein $3335</strong></p>
      <p>Killka es un restaurante con capacidad para aproximadamente 80 personas. Cuent con un variado menú a la carta, ofreciendo también vinos de la bodegas Salentein y Callia. Este restaurante además cuenta con el Salón Pircas, espacio anexo al comedor, que posee una capacidad de 120 cubiertos más.</p>
      <p>FICHA TÉCNICA</p>
      <p>SALIDAS REGULARES: Martes a Domingo.<br/>
      HORARIO: 11:00 aproximadamente.<br/>
      DURACIÓN: 6/7 horas.<br/>
      LUGAR DE SALIDA: Las Heras 554, ciudad<br/>
      SERVICIOS INCLUIDOS: Transporte sin guía, visita guiada con degustación y almuerzo.<br/>
      MÍNIMO PASAJEROS: Ver.<br/></p>

      <p><strong>Andeluna </strong></p>
      <p>Bodega Andeluna está situada en Gualtallary Tupungato (Valle de Uco). En 80 hectáreas de viñedos situados a 1300 msnm se puede apreciar  el microclima diferente a otras regiones: cálidos y noches frescas. La experiencia gastronómica que ofrece está acompañada por un mar de viñedos, sabores y aromas.</p>
      <p>FICHA TÉCNICA</p>
      <p>SALIDAS REGULARES: Lunes a Sábado.<br/>
      HORARIO: 11:00 aproximadamente.<br/>
      DURACIÓN: 4/5 horas.<br/>
      LUGAR DE SALIDA: Las Heras 554, ciudad<br/>
      SERVICIOS INCLUIDOS: Traslado, visita con degustación y almuerzo (Menú 6 pasos con vinos).<br/>
      MÍNIMO PASAJEROS: Ver.<br/></p>

      <p><strong>Fournier $2340</strong></p>
      <p>La chef y dueña del restaurante de esta bodega, junto a su co chef, idearon un menú estacional lleno de equilibrio, sabores y novedades. Consta de seis pasos que ensamblan dos cocinas propias de las culturas que conviven todo el tiempo en la bodega: la Argentina y Española/Mediterránea. Todo en perfecto maridaje con los vinos Urban, Bcrux y Alfa Crux. Para ofrecer la mejor calidad desde su materia prima, se utilizan productos frescos de la zona, algunos de ellos de su propia huerta.</p>
      <p>FICHA TÉCNICA</p>
      <p>SALIDAS REGULARES: Jueves a Domingo.<br/>
      HORARIO: 12:00 aproximadamente.<br/>
      DURACION: 6/7 horas.<br/>
      LUGAR DE SALIDA: Las Heras 554, ciudad<br/>
      SERVICIOS INCLUIDOS: Transporte sin guía, visita guiada con degustación y almuerzo.<br/>
      MÍNIMO PASAJEROS: Ver.<br/></p>

      <p><strong>Atamisque $1985</strong></p>
      <p>John Du Monceau, francés, se enamora del lugar y decide radicarse allí para vivir. Esta bodega teñida por la cultura francesa, promete una estadía de maridajes de excelencia. Su primera cosecha en el 2007 marca un camino de éxito tanto en su producción vitivinícola como en su proyecto gastronómico.</p>
      <p>FICHA TÉCNICA</p>
      <p>SALIDAS REGULARES: Jueves a Domingo.<br/>
      HORARIO: 11:00 aproximadamente.<br/>
      DURACIÓN: 4/5 horas.<br/>
      LUGAR DE SALIDA: Las Heras 554, ciudad<br/>
      SERVICIOS INCLUIDOS: Traslado, visita con degustación y almuerzo (Menú 3 pasos con vino).<br/>
      MÍNIMO PASAJEROS: Ver.<br/></p>

      <p><strong>Los toneles $1760</strong></p>
      <p>Toneles fue fundada en 1922 por la familia Armando, inmigrantes europeos. Esto se puede apreciar en la arquitectura del lugar, sus detalles de la belle époque y ornamentos art nouveau. Declarado Patrimonio Cultural de Mendoza en 2008, cuenta con el Restaurante Abrasado. Su especialidad son las Carnes Maduras en Seco (Dry Aged Beef) y sus cortes almacenados en un sistema de refrigeración personalizado bajo estricto control de temperatura y flujo de aire, lo que hace que concentre su sabor y se logre una carne mucho más tierna.</p>
      <p>FICHA TÉCNICA</p>
      <p>SALIDAS REGULARES: Martes a Sábados.<br/>
      HORARIO: 12:00 y 20:00 aproximadamente.<br/>
      SALIDAS REGULARES: Domingos - HORARIO: 12:00<br/>
      DURACIÓN: 4/5 horas.<br/>
      LUGAR DE SALIDA: Las Heras 554, ciudad<br/>
      SERVICIOS INCLUIDOS: Transporte sin guía, visita guiada con degustación y almuerzo sin bebidas.<br/></p>

      <p><strong>Vistandes $1495</strong></p>

      <p><strong>Siete fuegos $3110</strong></p>
      <p>Ubicado en la Ruta 94 S/N Los Sauces de Tunuyán, Valle de Uco, en un predio denominado Villa de las bodegas dentro del proyecto The Vines of Mendoza. Francis Mallmann, su fundador, es conocido como “el maestro de la cocina de fuegos”, por su innovador sistema de cocción con fuego.</p>
      <p>FICHA TÉCNICA</p>
      <p>SALIDAS REGULARES: Miércoles a Domingo.<br/>
      HORARIO: 10:30 aproximadamente.<br/>
      DURACION: 6/7 horas (220 kilómetros: The Vines & Resort Mendoza).<br/>
      LUGAR DE SALIDA: Las Heras, 554, ciudad<br/>
      SERVICIOS INCLUIDOS: Transporte sin guía, visita guiada con degustación y almuerzo, con vinos incluidos.<br/>
      MÍNIMO PASAJEROS: Ver.<br/></p>"
  },
  "en_alta": {
    "title": "Bodegas Alta Gama",
    "html": "<p>Si te gusta la gastronomía y la excelencia en el servicio, esta excursión es para vos. Vas a poder disfrutar de prestaciones de calidad, transporte de alta gama privado y visitas a las bodegas más reconocidas de Mendoza. El almuerzo en un ambiente temático es acompañado por vinos y platos premium.</p>
      <p><strong>$3855</strong></p>
      <p>Visita Catena Zapata</p>
      <p>Visita y almuerzo bodega Lagarde</p>
      <p><strong>$2800</strong></p>
      <p>Visita bodega Atamisque con almuerzo</p>
      <p>Visita bodega Pulenta State</p>
      <p><strong>$3395</strong></p>
      <p>Visita bodega Fournier con almuerzo</p>
      <p>Visita bodega Clos de los siete</p>
      <p><strong>$5130</strong></p>
      <p>Visita bodega Salentein con almuerzo</p>
      <p>Visita bodega Andeluna</p>
      <p><strong>$3875</strong></p>
      <p>Visita bodega Trapiche</p>
      <p>Visita bodega Zuccardi con almuerzo</p>
      <p><strong>$3200</strong></p>
      <p>Visita bodega Cobos</p>
      <p>Visita y almuerzo bodega Baquedano</p>"
  },
  "en_valle": {
    "title": "Bodegas Valle de Uco",
    "html": "<p>Bodegas Valle de Uco $3750</p>
      <ul><li>Bodega Andeluna Cellars</li>
      <li>Bodega Bousquet</li>
      <li>Bodega Salentein</li></ul>"
  },
  "en_vino_oliva": {
    "title": "Bodegas, Vino y oliva",
    "html" : "<p>Bodegas vino y oliva $2190</p>
      <ul><li>Bodega Altavista</li>
      <li>Luigi Bosca</li>
      <li>Tempus Alba</li></ul>"
  },
  "en_vino_sabores": {
    "title": "Vinos y Sabores",
    "html" : "<p>Vinos y sabores $2190</p>
      <ul><li>Bodega Trapiche</li>
      <li>Bodega Sin fin</li>
      <li>Bodega Zuccardi con almuerzo</li></ul>"
  }
}
